Final-project-260
…
deaths_2020_table <- deaths |>
  filter(year == 2020) |>
  group_by(state) |>
  summarize(total_deaths = sum(total_deaths, na.rm = TRUE), .groups = 'drop') |>
  arrange(desc(total_deaths))

deaths_2020_table

# A tibble: 53 × 2
   state         total_deaths
   <chr>                <dbl>
 1 California          102123
 2 Texas               101211
 3 New York City        66930
 4 Florida              65751
 5 Pennsylvania         55603
 6 New Jersey           54665
 7 Illinois             50374
 8 New York             48877
 9 Ohio                 45611
10 Michigan             37174
# ℹ 43 more rows
…
deaths_2021_table <- deaths |>
  filter(year == 2021) |>
  group_by(state) |>
  summarize(total_deaths = sum(total_deaths, na.rm = TRUE), .groups = 'drop') |>
  arrange(desc(total_deaths)) 

deaths_2021_table

# A tibble: 53 × 2
   state          total_deaths
   <chr>                 <dbl>
 1 Texas                145857
 2 California           143703
 3 Florida              116404
 4 Ohio                  61416
 5 Pennsylvania          61390
 6 Georgia               51755
 7 North Carolina        45512
 8 Michigan              44769
 9 New York              44175
10 Arizona               41964
# ℹ 43 more rows
…
deaths_2022_2023_table <- deaths |>
  filter(year == 2022 | year == 2023) |>
  group_by(state) |>
  summarize(total_deaths = sum(total_deaths, na.rm = TRUE), .groups = 'drop') |>
  arrange(desc(total_deaths)) 

deaths_2022_2023_table

# A tibble: 53 × 2
   state          total_deaths
   <chr>                 <dbl>
 1 California            88402
 2 Texas                 70290
 3 Florida               67514
 4 Pennsylvania          46096
 5 Ohio                  45795
 6 New York              36989
 7 North Carolina        33819
 8 Illinois              33153
 9 Michigan              32052
10 Tennessee             28214
# ℹ 43 more rows
…
